<?xml version="1.0" encoding="utf-8"?>
<!-- Generator: Adobe Illustrator 22.1.0, SVG Export Plug-In . SVG Version: 6.00 Build 0)  -->
<svg version="1.1" id="Capa_1" xmlns="http://www.w3.org/2000/svg" xmlns:xlink="http://www.w3.org/1999/xlink" x="0px" y="0px"
	 viewBox="0 0 109.4 25.7" style="enable-background:new 0 0 109.4 25.7;" xml:space="preserve">
<style type="text/css">
	.st0{fill:#2A2559;}
	.st1{fill:#A099B1;}
	.st2{fill:#483F5E;}
</style>
<g>
	<g>
		<g>
			<path class="st0" d="M2.5,0.5h1.1V12H2.5V0.5z"/>
			<path class="st0" d="M14.9,0.5V12h-1.1L7.4,2.4V12H6.2V0.5h1.1l6.3,9.6V0.5H14.9z"/>
			<path class="st0" d="M17.5,0.5h6.2v0.9h-5v4.3h4.3v0.9h-4.3V12h-1.1V0.5z"/>
			<path class="st0" d="M30.7,12.1c-3.2,0-5.7-2.4-5.7-5.8c0-3.4,2.5-5.8,5.7-5.8c3.2,0,5.7,2.4,5.7,5.8
				C36.3,9.7,33.9,12.1,30.7,12.1z M30.7,11.1c2.5,0,4.5-1.9,4.5-4.8c0-3-1.9-4.8-4.5-4.8s-4.5,1.8-4.5,4.8
				C26.2,9.3,28.1,11.1,30.7,11.1z"/>
			<path class="st0" d="M41.9,0.5c2.7,0,3.9,1.4,3.9,3.3c0,1.6-0.9,2.9-2.8,3.3l2.9,4.9h-1.4l-2.8-4.8h-2.1V12h-1.1V0.5H41.9z
				 M41.9,1.5h-2.3v4.8h2.3c1.9,0,2.7-1,2.7-2.4C44.6,2.4,43.8,1.5,41.9,1.5z"/>
			<path class="st0" d="M48.1,0.7h1.2l4.4,9.8L58,0.7h1.2V12h-1.1V3l-4,9h-0.8l-4-9v9h-1.1V0.7z"/>
			<path class="st0" d="M67.8,1.5H63v4.3h4.3v0.9H63V11h4.8V12h-6V0.5h6V1.5z"/>
		</g>
	</g>
	<g>
		<g>
			<path class="st0" d="M8.6,20.4c0,2.6-1.7,4.2-4.5,4.2H1.6v-8.5h2.5C6.9,16.1,8.6,17.7,8.6,20.4z M4.1,23.9c2.4,0,3.6-1.3,3.6-3.5
				c0-2.2-1.2-3.6-3.6-3.6H2.4v7.1H4.1z"/>
			<path class="st0" d="M14.6,16.8H11V20h3.2v0.7H11v3.2h3.6v0.7h-4.4v-8.5h4.4V16.8z"/>
			<path class="st0" d="M20.5,16.1v7.8h3.1v0.7h-3.9v-8.5H20.5z"/>
			<path class="st0" d="M29.7,22.6h-3.9l-0.7,2h-0.9l3.1-8.4h1l3.1,8.4h-0.9L29.7,22.6z M27.7,17.3l-1.7,4.6h3.4L27.7,17.3z"/>
			<path class="st0" d="M35.6,24.6h-2.9v-8.5h2.9c1.8,0,2.6,0.9,2.6,2.1c0,1.1-0.7,1.7-1.5,2c0.9,0.2,1.7,1,1.7,2.1
				C38.4,23.6,37.4,24.6,35.6,24.6z M35.5,16.8h-1.9v3h2c1.2,0,1.8-0.6,1.8-1.5C37.3,17.4,36.7,16.8,35.5,16.8z M35.5,20.6h-2v3.3h2
				c1.2,0,2-0.6,2-1.6C37.5,21.2,36.7,20.6,35.5,20.6z"/>
			<path class="st0" d="M43.8,24.7c-2.4,0-4.2-1.8-4.2-4.3c0-2.5,1.8-4.3,4.2-4.3c2.4,0,4.2,1.8,4.2,4.3
				C48,22.9,46.1,24.7,43.8,24.7z M43.8,24c1.9,0,3.3-1.4,3.3-3.6s-1.4-3.6-3.3-3.6c-1.9,0-3.3,1.4-3.3,3.6S41.9,24,43.8,24z"/>
			<path class="st0" d="M52.1,16.1c2,0,2.9,1.1,2.9,2.5c0,1.2-0.7,2.2-2.1,2.4l2.2,3.6h-1l-2.1-3.6h-1.6v3.6h-0.9v-8.5H52.1z
				 M52.1,16.8h-1.7v3.5h1.7c1.4,0,2-0.8,2-1.8C54.1,17.5,53.5,16.8,52.1,16.8z"/>
			<path class="st0" d="M61.1,16.8h-3.6V20h3.2v0.7h-3.2v3.2h3.6v0.7h-4.4v-8.5h4.4V16.8z"/>
			<path class="st0" d="M65.4,24.7c-1.7,0-2.8-1-2.9-2.3h0.9c0.1,0.7,0.6,1.6,2,1.6c1.2,0,1.9-0.7,1.9-1.6c0-2.5-4.7-0.9-4.7-4.1
				c0-1.3,1.1-2.3,2.7-2.3c1.6,0,2.6,0.9,2.7,2.1h-0.9c-0.1-0.6-0.7-1.3-1.8-1.3c-1,0-1.8,0.5-1.8,1.5c0,2.5,4.7,0.9,4.7,4.1
				C68.1,23.5,67.2,24.7,65.4,24.7z"/>
		</g>
	</g>
	<g>
		<g>
			<path class="st1" d="M71.9,10.2c2.5-2.1,5.2-4.1,5.2-6.2c0-1-0.4-1.7-1.5-1.7c-1,0-1.6,0.7-1.6,1.9h-2.1c0.1-2.6,1.7-3.7,3.7-3.7
				c2.4,0,3.6,1.4,3.6,3.4c0,2.6-2.5,4.6-4.3,6.1h4.5v1.8h-7.6V10.2z"/>
			<path class="st1" d="M85,0.6c3.2,0,4.1,2.4,4.1,5.7c0,3.3-1,5.7-4.1,5.7c-3.2,0-4.1-2.4-4.1-5.7C80.8,3,81.8,0.6,85,0.6z M85,2.6
				c-1.8,0-2,1.7-2,3.7c0,2,0.2,3.7,2,3.7c1.8,0,2-1.7,2-3.7C87,4.3,86.8,2.6,85,2.6z"/>
			<path class="st1" d="M90.6,10.2c2.5-2.1,5.2-4.1,5.2-6.2c0-1-0.4-1.7-1.5-1.7c-1,0-1.6,0.7-1.6,1.9h-2.1c0.1-2.6,1.7-3.7,3.7-3.7
				c2.4,0,3.6,1.4,3.6,3.4c0,2.6-2.5,4.6-4.3,6.1h4.5v1.8h-7.6V10.2z"/>
			<path class="st1" d="M103.7,0.6c3.2,0,4.1,2.4,4.1,5.7c0,3.3-1,5.7-4.1,5.7s-4.1-2.4-4.1-5.7C99.5,3,100.5,0.6,103.7,0.6z
				 M103.7,2.6c-1.8,0-2,1.7-2,3.7c0,2,0.2,3.7,2,3.7c1.8,0,2-1.7,2-3.7C105.7,4.3,105.5,2.6,103.7,2.6z"/>
		</g>
	</g>
	<g>
		<g>
			<path class="st2" d="M91.4,23.5c2.5-2.1,5.2-4.1,5.2-6.2c0-1-0.4-1.7-1.5-1.7c-1,0-1.6,0.7-1.6,1.9h-2.1c0.1-2.6,1.7-3.7,3.7-3.7
				c2.4,0,3.6,1.4,3.6,3.4c0,2.6-2.5,4.6-4.3,6.1H99v1.8h-7.6V23.5z"/>
			<path class="st2" d="M103.2,16h-1.5v-2h3.7v11.2h-2.2V16z"/>
		</g>
	</g>
	<g>
		<path class="st2" d="M71.9,23.6c2.5-2.1,5.2-4.1,5.2-6.2c0-1-0.4-1.7-1.5-1.7c-1,0-1.6,0.7-1.6,1.9h-2.1c0.1-2.6,1.7-3.7,3.7-3.7
			c2.4,0,3.6,1.4,3.6,3.4c0,2.6-2.5,4.6-4.3,6.1h4.5v1.8h-7.6V23.6z"/>
		<path class="st2" d="M85.1,13.9c3.2,0,4.1,2.4,4.1,5.7c0,3.3-1,5.7-4.1,5.7s-4.1-2.4-4.1-5.7C80.9,16.3,81.9,13.9,85.1,13.9z
			 M85.1,15.9c-1.8,0-2,1.7-2,3.7c0,2,0.2,3.7,2,3.7s2-1.7,2-3.7C87.1,17.7,86.9,15.9,85.1,15.9z"/>
	</g>
</g>
</svg>
