<svg width="175" height="175" viewBox="0 0 175 175" fill="none" xmlns="http://www.w3.org/2000/svg">
<path d="M72.66 0.290039H102.66C105.39 1.54004 106.54 3.68015 106.54 6.65015C106.54 8.65015 107.15 10.6501 106.98 12.5901C106.68 16.0401 108.22 17.4001 111.42 18.3601C115.56 19.5901 119.48 21.6101 123.73 23.3601C124 23.0401 124.38 22.5501 124.82 22.1101C130.88 16.0301 136.947 9.9568 143.02 3.89014C144.58 2.32014 146.34 1.51997 148.56 2.21997C149.545 2.51962 150.418 3.10589 151.068 3.90381C151.718 4.70172 152.116 5.67508 152.21 6.69995C152.94 10.83 153.79 14.9501 154.5 19.0901C154.508 19.5359 154.688 19.9613 155.003 20.2766C155.319 20.5919 155.744 20.7723 156.19 20.78C160.45 21.5 164.68 22.3301 168.92 23.1401C169.863 23.2848 170.748 23.689 171.474 24.3079C172.2 24.9267 172.74 25.7358 173.033 26.644C173.326 27.5523 173.36 28.5241 173.131 29.4507C172.903 30.3772 172.421 31.2219 171.74 31.8901C171.43 32.2301 171.11 32.5401 170.74 32.8901C164.84 38.7968 158.927 44.7034 153 50.6101C152.508 51.0006 151.975 51.3359 151.41 51.6101L152.2 51.8801C154.13 56.8801 156.04 61.8801 158.03 66.8801C158.181 67.1409 158.387 67.3654 158.634 67.5381C158.881 67.7108 159.163 67.8276 159.46 67.8801C162.56 68.2301 165.68 68.5999 168.79 68.6699C170.095 68.6021 171.39 68.9383 172.498 69.6326C173.605 70.3268 174.472 71.3456 174.98 72.55V102.55C174.471 103.754 173.604 104.771 172.497 105.466C171.389 106.16 170.095 106.496 168.79 106.43C165.67 106.5 162.55 106.86 159.45 107.23C159.133 107.314 158.837 107.466 158.583 107.675C158.33 107.884 158.124 108.145 157.98 108.44C155.98 113.12 154.08 117.86 152.06 122.55C151.87 122.85 151.79 123.206 151.834 123.558C151.878 123.91 152.042 124.236 152.3 124.48C154.55 127.05 156.75 129.66 158.93 132.28C161.11 134.9 161.12 137.56 158.68 140.01C152.513 146.23 146.32 152.423 140.1 158.59C137.64 161.04 135.1 161.1 132.38 158.88C129.66 156.66 127.23 154.57 124.71 152.36C124.437 152.053 124.064 151.854 123.657 151.797C123.25 151.74 122.837 151.83 122.49 152.05C117.92 154.05 113.32 155.98 108.67 157.79C108.244 157.887 107.866 158.128 107.598 158.473C107.33 158.817 107.189 159.244 107.2 159.68C106.96 162.97 106.65 166.25 106.4 169.54C106.14 173.03 104.18 174.9 100.66 174.91H74.56C71.03 174.91 69.08 173.04 68.81 169.54C68.55 166.2 68.22 162.86 68 159.54C67.93 158.54 67.46 158.18 66.54 157.81C61.96 156.01 57.4067 154.123 52.88 152.15C52.5214 151.899 52.0855 151.784 51.6497 151.824C51.214 151.864 50.8066 152.058 50.5 152.37C47.95 154.63 45.34 156.83 42.71 159C40.08 161.17 37.56 161 35.24 158.73C28.94 152.483 22.6666 146.21 16.42 139.91C14.12 137.59 14.06 134.99 16.17 132.45C18.28 129.91 20.46 127.28 22.69 124.78C23.0245 124.463 23.2391 124.039 23.2974 123.582C23.3557 123.125 23.2542 122.661 23.01 122.27C21.01 117.76 19.15 113.2 17.34 108.61C16.98 107.69 16.63 107.23 15.61 107.16C12.27 106.94 8.92999 106.61 5.60999 106.35C2.28999 106.09 0.28002 104.14 0.27002 100.76C0.27002 91.9467 0.27002 83.1334 0.27002 74.3201C0.27002 71.0101 2.19003 69.03 5.47003 68.77C8.75003 68.51 12.27 68.1899 15.67 67.9399C16.0548 67.9458 16.43 67.8201 16.7337 67.5837C17.0374 67.3474 17.2513 67.0146 17.34 66.6401C19.1867 61.9735 21.1167 57.3068 23.13 52.6401C23.3439 52.2891 23.429 51.8744 23.3706 51.4675C23.3122 51.0606 23.114 50.6866 22.81 50.4099C20.63 47.9399 18.51 45.4101 16.39 42.8801C14.02 40.0501 14.11 37.5101 16.7 34.8801C22.8 28.7468 28.9134 22.6367 35.04 16.55C37.59 14.01 40.14 13.8999 42.89 16.1799C45.47 18.3199 48.04 20.48 50.55 22.71C50.833 23.0061 51.2101 23.1949 51.6167 23.2441C52.0233 23.2934 52.4345 23.2 52.78 22.98C57.41 20.98 62.1 19.1201 66.78 17.1301C67.0556 16.995 67.3011 16.8056 67.5021 16.5737C67.7031 16.3418 67.8554 16.072 67.95 15.78C68.32 12.68 68.68 9.55994 68.75 6.43994C68.6973 5.13852 69.0435 3.85209 69.7423 2.75293C70.4411 1.65377 71.4592 0.794477 72.66 0.290039V0.290039ZM126.04 56.22C144.56 79.11 138.68 111.04 117.7 127.01C110.296 132.637 101.456 136.065 92.193 136.899C82.9304 137.733 73.6201 135.941 65.3295 131.727C57.0388 127.513 50.1033 121.048 45.3179 113.074C40.5326 105.099 38.091 95.9377 38.2731 86.6394C38.4553 77.3411 41.2537 68.2822 46.3477 60.5012C51.4417 52.7203 58.625 46.532 67.0743 42.646C75.5236 38.76 84.897 37.3335 94.1198 38.5298C103.343 39.7261 112.042 43.4968 119.22 49.4099C119.558 48.7775 119.979 48.1925 120.47 47.6699C121.034 47.2545 121.449 46.6679 121.653 45.9976C121.856 45.3272 121.838 44.609 121.6 43.95C120.89 40.95 120.35 37.82 119.91 34.73C119.849 34.2054 119.65 33.7064 119.334 33.2832C119.018 32.86 118.596 32.5278 118.11 32.3201C113.266 29.6837 108.108 27.6678 102.76 26.3201C98.7601 25.3201 97.87 24.32 97.4 20.21C97.31 19.42 97.28 18.6201 97.21 17.8301C97.01 15.4201 96.79 13.0101 96.58 10.6101H78.76C78.46 14.0301 78.21 17.37 77.88 20.71C77.55 24.05 76.41 25.43 73.1 26.22C66.5731 27.7828 60.3332 30.3646 54.61 33.8701C51.61 35.7401 49.74 35.55 47.04 33.25C44.54 31.12 42.04 29 39.69 27.03L27.06 39.72L33.44 47.24C35.44 49.65 35.71 51.6 34.09 54.24C30.3982 60.1917 27.6964 66.703 26.09 73.52C25.45 76.27 23.89 77.5701 21.09 77.8301C17.6 78.1701 14.09 78.45 10.57 78.76V96.5701C13.96 96.8701 17.29 97.12 20.57 97.45C24.1 97.8 25.35 98.9301 26.17 102.34C27.7088 108.758 30.2428 114.896 33.68 120.53C35.68 123.84 35.54 125.53 33.01 128.53L26.9 135.74L39.56 148.38C42.1 146.23 44.73 143.98 47.38 141.75C49.5 139.97 51.55 139.67 53.81 141.06C59.9553 144.86 66.6708 147.649 73.7 149.32C76.28 149.94 77.5 151.5 77.76 154.15C78.09 157.66 78.37 161.15 78.68 164.72H96.51C96.81 161.23 97.08 157.83 97.41 154.44C97.71 151.32 98.99 149.86 102.03 149.15C108.568 147.627 114.818 145.061 120.54 141.55C123.76 139.55 125.47 139.75 128.38 142.22L135.51 148.22C139.8 143.96 143.98 139.81 148.21 135.59C146.12 133.12 143.9 130.53 141.71 127.92C139.81 125.66 139.59 123.69 141.11 121.21C144.805 115.202 147.506 108.638 149.11 101.77C149.74 99.02 151.31 97.77 154.11 97.48C157.6 97.14 161.11 96.8601 164.61 96.5601V78.78C161.21 78.49 157.87 78.2399 154.55 77.9099C151.05 77.5599 149.79 76.41 148.96 73C147.64 67.399 145.536 62.0125 142.71 57C142.387 56.3722 141.841 55.8875 141.18 55.6401C137.52 54.8601 133.83 54.2001 130.18 53.5901C129.538 53.5743 128.91 53.7788 128.4 54.1699C127.579 54.8128 126.791 55.497 126.04 56.22V56.22ZM111.19 56.4299C97.72 45.4299 74.03 44.6 58.7 61.21C55.2482 65.0347 52.5836 69.5019 50.8582 74.3564C49.1328 79.211 48.3805 84.3579 48.6442 89.5032C48.9079 94.6485 50.1825 99.6915 52.3952 104.344C54.6079 108.997 57.7153 113.168 61.54 116.62C65.3648 120.072 69.832 122.737 74.6865 124.462C79.5411 126.187 84.6879 126.939 89.8332 126.676C94.9785 126.412 100.021 125.137 104.674 122.925C109.327 120.712 113.498 117.605 116.95 113.78C131.58 97.24 128.26 74.9601 118.75 64.1301L109.22 73.6401C118.12 88.4601 110.92 102.97 102 108.89C98.1631 111.466 93.7008 112.955 89.0862 113.201C84.4715 113.447 79.8763 112.441 75.7871 110.288C71.6979 108.135 68.2671 104.917 65.8582 100.973C63.4492 97.0295 62.1516 92.5077 62.1031 87.8867C62.0545 83.2658 63.2568 78.7177 65.5824 74.7244C67.908 70.731 71.2705 67.441 75.3135 65.2029C79.3566 62.9648 83.9297 61.8619 88.5485 62.011C93.1673 62.1601 97.6597 63.5558 101.55 66.05L111.19 56.4299ZM101.49 81.1799C101.18 81.4599 100.96 81.6301 100.77 81.8301C97.63 84.9601 94.53 88.13 91.35 91.21C90.8774 91.7065 90.3088 92.1017 89.6788 92.3718C89.0488 92.6419 88.3705 92.7812 87.685 92.7812C86.9995 92.7812 86.3212 92.6419 85.6912 92.3718C85.0612 92.1017 84.4926 91.7065 84.02 91.21C83.0754 90.2414 82.5526 88.9385 82.5657 87.5857C82.5788 86.2328 83.1268 84.94 84.09 83.99C84.9 83.12 85.77 82.3 86.62 81.46L94.23 73.8701C90.9712 72.3159 87.2681 71.9624 83.7742 72.8723C80.2802 73.7822 77.2199 75.8969 75.1331 78.8433C73.0464 81.7896 72.0672 85.3784 72.3685 88.9763C72.6698 92.5742 74.2322 95.95 76.7799 98.5083C79.3276 101.067 82.6971 102.643 86.2937 102.959C89.8903 103.275 93.483 102.311 96.438 100.236C99.3929 98.1617 101.52 95.1101 102.445 91.6199C103.369 88.1297 103.031 84.4251 101.49 81.1599V81.1799ZM143.89 17.8801C143.684 17.958 143.489 18.062 143.31 18.1899C139.01 22.4699 134.7 26.7501 130.44 31.0901C130.256 31.3138 130.12 31.573 130.04 31.8518C129.961 32.1306 129.941 32.4228 129.98 32.71C130.5 35.95 131.08 39.1899 131.75 42.4099C131.854 42.6935 132.024 42.9489 132.244 43.1555C132.465 43.3621 132.73 43.5143 133.02 43.6001C136.02 44.2501 139.02 44.7201 142.02 45.3401C142.499 45.4756 143.007 45.4714 143.483 45.3279C143.96 45.1844 144.386 44.9075 144.71 44.53C148.55 40.58 152.48 36.7201 156.37 32.8201C156.75 32.4301 157.09 32.02 157.58 31.48C154.84 30.96 152.34 30.48 149.84 30C147.16 29.48 145.84 28.1301 145.31 25.4001C144.85 22.9501 144.39 20.5001 143.89 17.8801V17.8801Z" fill="white"/>
</svg>
