<svg width="25" height="25" viewBox="0 0 25 25" fill="none" xmlns="http://www.w3.org/2000/svg">
<path d="M12.5 1.89995C18.4 1.89995 23.2 6.69995 23.2 12.6C23.2 18.5 18.4 23.2999 12.5 23.2999C6.59998 23.2999 1.79998 18.5 1.79998 12.6C1.89998 6.69995 6.59998 1.89995 12.5 1.89995ZM12.5 0.199951C5.69998 0.199951 0.0999756 5.69995 0.0999756 12.6C0.0999756 19.5 5.69998 25 12.5 25C19.3 25 24.9 19.5 24.9 12.6C24.9 5.69995 19.3 0.199951 12.5 0.199951Z" fill="white"/>
<path fill-rule="evenodd" clip-rule="evenodd" d="M6 19.2001C6.1 18.9001 6.1 18.6001 6.2 18.4001C6.4 17.6001 6.7 16.8001 6.9 15.9001C6.9 15.8001 6.9 15.6001 6.9 15.5001C4.8 11.5001 7 6.70005 11.3 5.70005C15.3 4.80005 18.9 7.50005 19.5 11.0001C20.2 14.7001 17.7 18.3001 14 19.0001C12.5 19.3001 11.1 19.0001 9.8 18.4001C9.7 18.3001 9.5 18.3001 9.4 18.4001C7.6 18.8001 6.4 19.1001 6 19.2001ZM7.6 17.6001C8.3 17.4001 8.9 17.3001 9.5 17.1001C9.7 17.1001 9.8 17.1001 10 17.2001C11.2 17.9001 12.4 18.1001 13.8 17.9001C16.9 17.4001 19 14.5001 18.5 11.5001C18 8.30005 15 6.20005 11.9 6.80005C8.1 7.50005 6.1 11.8001 8 15.1001C8.2 15.5001 8.3 15.8001 8.1 16.2001C7.8 16.6001 7.7 17.1001 7.6 17.6001Z" fill="white"/>
<path fill-rule="evenodd" clip-rule="evenodd" d="M14.6 15.5C13.3 15.5 11.2 14.4 9.69995 11.9C9.19995 11 9.29995 9.99996 9.99995 9.29996C10.3 9.09996 10.6 9.09996 10.9 9.19996C11 9.19996 11 9.29996 11.1 9.39996C11.3 9.79996 11.5 10.3 11.6 10.7C11.7 10.9 11.4999 11.2 11.1999 11.6C11.0999 11.7 11.0999 11.8 11.1999 12C11.8 12.9 12.5 13.6 13.6 14C13.8 14.1 13.9 14 14 13.9C14.5 13.2 14.6 13 14.9 13.2C16.3 13.9 16.4 13.9 16.4 14C16.3 15.2 15.2 15.6 14.6 15.5Z" fill="white"/>
</svg>
